HTTP	11	726	3
MDNS	8	952	4
DHCP	10	3420	1
STUN	27	2322	2
ICMP	10	700	1
RTP	44	7818	2
TLS	8	589	2
Dropbox	4	2176	1
Apple	190	50263	21
WhatsApp	182	25154	2
Spotify	3	258	1
WhatsAppVoice	732	92802	16
ApplePush	22	5926	1

JA3 Host Stats: 
		 IP Address                  	 # JA3C     
	1	 192.168.2.4              	 1      


	1	UDP 192.168.2.4:51518 <-> 91.253.176.65:9344 [proto: 78.189/STUN.WhatsAppVoice][cat: VoIP/10][186 pkts/27025 bytes <-> 278 pkts/25895 bytes][bytes ratio: 0.021 (Mixed)][IAT c2s/s2c min/avg/max/stddev: 0/0 49.3/34.3 209/352 59.0/50.4][Pkt Len c2s/s2c min/avg/max/stddev: 68/64 145.3/93.1 525/488 100.0/64.5][PLAIN TEXT (zTdFPOk)]
	2	UDP 192.168.2.4:52794 <-> 91.253.176.65:9665 [proto: 78.189/STUN.WhatsAppVoice][cat: VoIP/10][141 pkts/17530 bytes <-> 57 pkts/12888 bytes][bytes ratio: 0.153 (Mixed)][IAT c2s/s2c min/avg/max/stddev: 0/0 51.7/132.2 307/539 65.0/84.2][Pkt Len c2s/s2c min/avg/max/stddev: 65/68 124.3/226.1 484/552 75.0/128.5]
	3	TCP 192.168.2.4:49202 <-> 184.173.179.37:5222 [proto: 142/WhatsApp][cat: Chat/9][100 pkts/14711 bytes <-> 80 pkts/10163 bytes][bytes ratio: 0.183 (Mixed)][IAT c2s/s2c min/avg/max/stddev: 0/0 1356.0/1696.8 28162/28146 4142.9/4597.2][Pkt Len c2s/s2c min/avg/max/stddev: 66/66 147.1/127.0 1506/754 238.5/99.0][PLAIN TEXT (iPhone)]
	4	TCP 192.168.2.4:49204 <-> 17.173.66.102:443 [proto: 91.140/TLS.Apple][cat: Web/5][29 pkts/11770 bytes <-> 24 pkts/6612 bytes][bytes ratio: 0.281 (Upload)][IAT c2s/s2c min/avg/max/stddev: 0/0 1224.0/1483.8 31033/31176 5745.1/6337.4][Pkt Len c2s/s2c min/avg/max/stddev: 54/54 405.9/275.5 1494/1002 488.5/347.9][TLSv1.2][client: p53-buy.itunes.apple.com][JA3C: 799135475da362592a4be9199d258726][JA3S: c253ec3ad88e42f8da4032682892f9a0 (INSECURE)][Cipher: TLS_RSA_WITH_RC4_128_MD5]
	5	TCP 192.168.2.4:49201 <-> 17.178.104.12:443 [proto: 91.140/TLS.Apple][cat: Web/5][21 pkts/7644 bytes <-> 17 pkts/9576 bytes][bytes ratio: -0.112 (Mixed)][IAT c2s/s2c min/avg/max/stddev: 0/0 1641.8/2031.8 30435/30711 6607.5/7407.5][Pkt Len c2s/s2c min/avg/max/stddev: 54/54 364.0/563.3 1494/1494 552.5/634.4][TLSv1.2][client: query.ess.apple.com][JA3C: 799135475da362592a4be9199d258726][server: *.ess.apple.com][JA3S: c253ec3ad88e42f8da4032682892f9a0 (INSECURE)][organization: Apple Inc.][Cipher: TLS_RSA_WITH_RC4_128_MD5]
	6	TCP 192.168.2.4:49205 <-> 17.173.66.102:443 [proto: 91.140/TLS.Apple][cat: Web/5][17 pkts/6166 bytes <-> 15 pkts/3539 bytes][bytes ratio: 0.271 (Upload)][IAT c2s/s2c min/avg/max/stddev: 0/0 58.5/50.1 271/228 96.9/86.1][Pkt Len c2s/s2c min/avg/max/stddev: 54/54 362.7/235.9 1494/1002 464.1/321.5][TLSv1.2][client: p53-buy.itunes.apple.com][JA3C: 799135475da362592a4be9199d258726][JA3S: c253ec3ad88e42f8da4032682892f9a0 (INSECURE)][Cipher: TLS_RSA_WITH_RC4_128_MD5]
	7	TCP 192.168.2.4:49193 <-> 17.110.229.14:5223 [proto: 238/ApplePush][cat: Cloud/13][11 pkts/4732 bytes <-> 11 pkts/1194 bytes][bytes ratio: 0.597 (Upload)][IAT c2s/s2c min/avg/max/stddev: 53/0 12518.4/12519.7 101116/101113 30245.8/30246.0][Pkt Len c2s/s2c min/avg/max/stddev: 66/66 430.2/108.5 1506/300 466.8/82.6][PLAIN TEXT (yfV.nY)]
	8	UDP 192.168.2.4:51518 <-> 31.13.93.48:3478 [proto: 87/RTP][cat: Media/1][12 pkts/2341 bytes <-> 12 pkts/2484 bytes][bytes ratio: -0.030 (Mixed)][IAT c2s/s2c min/avg/max/stddev: 0/0 2652.5/1821.0 18656/18299 5702.0/5214.6][Pkt Len c2s/s2c min/avg/max/stddev: 64/68 195.1/207.0 331/358 97.6/107.5]
	9	UDP 0.0.0.0:68 -> 255.255.255.255:67 [proto: 18/DHCP][cat: Network/14][10 pkts/3420 bytes -> 0 pkts/0 bytes][Host: lucas-imac][bytes ratio: 1.000 (Upload)][IAT c2s/s2c min/avg/max/stddev: 1255/0 6659.6/0.0 9061/0 2879.9/0.0][Pkt Len c2s/s2c min/avg/max/stddev: 342/0 342.0/0.0 342/0 0.0/0.0][DHCP Fingerprint: 1,3,6,15,119,95,252,44,46]
	10	UDP 192.168.2.4:52794 <-> 31.13.84.48:3478 [proto: 87/RTP][cat: Media/1][9 pkts/1842 bytes <-> 11 pkts/1151 bytes][bytes ratio: 0.231 (Upload)][IAT c2s/s2c min/avg/max/stddev: 0/1 1790.6/713.6 6986/6468 2740.8/1919.9][Pkt Len c2s/s2c min/avg/max/stddev: 68/64 204.7/104.6 331/128 81.8/22.8]
	11	UDP 192.168.2.1:17500 -> 192.168.2.255:17500 [proto: 121/Dropbox][cat: Cloud/13][4 pkts/2176 bytes -> 0 pkts/0 bytes][PLAIN TEXT ( 3375359593)]
	12	TCP 192.168.2.4:49199 <-> 17.172.100.70:993 [proto: 51.140/IMAPS.Apple][cat: Web/5][9 pkts/1130 bytes <-> 8 pkts/868 bytes][bytes ratio: 0.131 (Mixed)][IAT c2s/s2c min/avg/max/stddev: 9/53 116.9/111.0 275/175 106.0/50.4][Pkt Len c2s/s2c min/avg/max/stddev: 66/66 125.6/108.5 236/151 68.4/42.5]
	13	UDP 192.168.2.4:51518 -> 1.194.90.191:60312 [proto: 78/STUN][cat: Network/14][15 pkts/1290 bytes -> 0 pkts/0 bytes][bytes ratio: 1.000 (Upload)][IAT c2s/s2c min/avg/max/stddev: 614/0 631.7/0.0 667/0 12.9/0.0][Pkt Len c2s/s2c min/avg/max/stddev: 86/0 86.0/0.0 86/0 0.0/0.0]
	14	UDP 192.168.2.4:52794 -> 1.194.90.191:51727 [proto: 78/STUN][cat: Network/14][12 pkts/1032 bytes -> 0 pkts/0 bytes][bytes ratio: 1.000 (Upload)][IAT c2s/s2c min/avg/max/stddev: 625/0 631.1/0.0 644/0 5.5/0.0][Pkt Len c2s/s2c min/avg/max/stddev: 86/0 86.0/0.0 86/0 0.0/0.0]
	15	ICMP 192.168.2.4:0 -> 91.253.176.65:0 [proto: 81/ICMP][cat: Network/14][10 pkts/700 bytes -> 0 pkts/0 bytes][bytes ratio: 1.000 (Upload)][IAT c2s/s2c min/avg/max/stddev: 2/0 4794.7/0.0 42598/0 13366.1/0.0][Pkt Len c2s/s2c min/avg/max/stddev: 70/0 70.0/0.0 70/0 0.0/0.0]
	16	UDP 192.168.2.4:51518 <-> 31.13.64.48:3478 [proto: 78.189/STUN.WhatsAppVoice][cat: VoIP/10][3 pkts/504 bytes <-> 2 pkts/172 bytes]
	17	UDP 192.168.2.4:51518 <-> 31.13.70.48:3478 [proto: 78.189/STUN.WhatsAppVoice][cat: VoIP/10][3 pkts/504 bytes <-> 2 pkts/172 bytes]
	18	UDP 192.168.2.4:51518 <-> 31.13.73.48:3478 [proto: 78.189/STUN.WhatsAppVoice][cat: VoIP/10][3 pkts/504 bytes <-> 2 pkts/172 bytes]
	19	UDP 192.168.2.4:51518 <-> 31.13.79.192:3478 [proto: 78.189/STUN.WhatsAppVoice][cat: VoIP/10][3 pkts/504 bytes <-> 2 pkts/172 bytes]
	20	UDP 192.168.2.4:51518 <-> 31.13.85.48:3478 [proto: 78.189/STUN.WhatsAppVoice][cat: VoIP/10][3 pkts/504 bytes <-> 2 pkts/172 bytes]
	21	UDP 192.168.2.4:51518 <-> 31.13.91.48:3478 [proto: 78.189/STUN.WhatsAppVoice][cat: VoIP/10][3 pkts/504 bytes <-> 2 pkts/172 bytes]
	22	UDP 192.168.2.4:51518 <-> 31.13.100.14:3478 [proto: 78.189/STUN.WhatsAppVoice][cat: VoIP/10][3 pkts/504 bytes <-> 2 pkts/172 bytes]
	23	UDP 192.168.2.4:52794 <-> 31.13.73.48:3478 [proto: 78.189/STUN.WhatsAppVoice][cat: VoIP/10][3 pkts/504 bytes <-> 2 pkts/172 bytes]
	24	UDP 192.168.2.4:52794 <-> 31.13.74.48:3478 [proto: 78.189/STUN.WhatsAppVoice][cat: VoIP/10][3 pkts/504 bytes <-> 2 pkts/172 bytes]
	25	UDP 192.168.2.4:52794 <-> 31.13.79.192:3478 [proto: 78.189/STUN.WhatsAppVoice][cat: VoIP/10][3 pkts/504 bytes <-> 2 pkts/172 bytes][PLAIN TEXT (ay.OF@)]
	26	UDP 192.168.2.4:52794 <-> 31.13.90.48:3478 [proto: 78.189/STUN.WhatsAppVoice][cat: VoIP/10][3 pkts/504 bytes <-> 2 pkts/172 bytes]
	27	UDP 192.168.2.4:52794 <-> 31.13.93.48:3478 [proto: 78.189/STUN.WhatsAppVoice][cat: VoIP/10][3 pkts/504 bytes <-> 2 pkts/172 bytes]
	28	UDP 192.168.2.4:52794 <-> 173.252.114.1:3478 [proto: 78.189/STUN.WhatsAppVoice][cat: VoIP/10][3 pkts/504 bytes <-> 2 pkts/172 bytes]
	29	UDP 192.168.2.4:52794 <-> 179.60.192.48:3478 [proto: 78.189/STUN.WhatsAppVoice][cat: VoIP/10][3 pkts/504 bytes <-> 2 pkts/172 bytes]
	30	TCP 192.168.2.4:49172 <-> 23.50.148.228:443 [proto: 91/TLS][cat: Web/5][3 pkts/174 bytes <-> 2 pkts/217 bytes]
	31	TCP 192.168.2.4:49192 <-> 93.186.135.8:80 [proto: 7/HTTP][cat: Web/5][3 pkts/198 bytes <-> 2 pkts/132 bytes]
	32	UDP 192.168.2.4:51897 <-> 192.168.2.1:53 [proto: 5.140/DNS.Apple][cat: Web/5][1 pkts/79 bytes <-> 1 pkts/251 bytes][Host: query.ess.apple.com][PLAIN TEXT (akadns)]
	33	UDP 192.168.2.4:52190 <-> 192.168.2.1:53 [proto: 5.142/DNS.WhatsApp][cat: Chat/9][1 pkts/76 bytes <-> 1 pkts/204 bytes][Host: e13.whatsapp.net][PLAIN TEXT (whatsapp)]
	34	UDP 192.168.2.1:57621 -> 192.168.2.255:57621 [proto: 156/Spotify][cat: Music/25][3 pkts/258 bytes -> 0 pkts/0 bytes][PLAIN TEXT (SpotUdp)]
	35	UDP [fe80::c42c:3ff:fe60:6a64]:5353 -> [ff02::fb]:5353 [proto: 8/MDNS][cat: Network/14][2 pkts/258 bytes -> 0 pkts/0 bytes]
	36	UDP [fe80::da30:62ff:fe56:1c]:5353 -> [ff02::fb]:5353 [proto: 8/MDNS][cat: Network/14][2 pkts/258 bytes -> 0 pkts/0 bytes]
	37	UDP 169.254.166.207:5353 -> 224.0.0.251:5353 [proto: 8/MDNS][cat: Network/14][2 pkts/218 bytes -> 0 pkts/0 bytes]
	38	UDP 192.168.2.1:5353 -> 224.0.0.251:5353 [proto: 8/MDNS][cat: Network/14][2 pkts/218 bytes -> 0 pkts/0 bytes]
	39	TCP 192.168.2.4:49173 <-> 93.186.135.82:80 [proto: 7/HTTP][cat: Web/5][2 pkts/132 bytes <-> 1 pkts/66 bytes]
	40	TCP 192.168.2.4:49174 <-> 5.178.42.26:80 [proto: 7/HTTP][cat: Web/5][2 pkts/132 bytes <-> 1 pkts/66 bytes]
	41	TCP 192.168.2.4:49194 <-> 93.62.150.157:443 [proto: 91/TLS][cat: Web/5][2 pkts/132 bytes <-> 1 pkts/66 bytes]
	42	TCP 192.168.2.4:49203 <-> 17.178.104.14:443 [proto: 91.140/TLS.Apple][cat: Web/5][2 pkts/132 bytes <-> 1 pkts/66 bytes]
	43	TCP 192.168.2.4:49163 <-> 17.154.66.111:443 [proto: 91.140/TLS.Apple][cat: Web/5][2 pkts/108 bytes <-> 1 pkts/54 bytes]
	44	TCP 192.168.2.4:49164 <-> 17.167.142.31:443 [proto: 91.140/TLS.Apple][cat: Web/5][2 pkts/108 bytes <-> 1 pkts/54 bytes]
	45	TCP 192.168.2.4:49165 <-> 17.172.100.55:443 [proto: 91.140/TLS.Apple][cat: Web/5][2 pkts/108 bytes <-> 1 pkts/54 bytes]
	46	TCP 192.168.2.4:49166 <-> 17.154.66.121:443 [proto: 91.140/TLS.Apple][cat: Web/5][2 pkts/108 bytes <-> 1 pkts/54 bytes]
	47	TCP 192.168.2.4:49167 <-> 17.172.100.8:443 [proto: 91.140/TLS.Apple][cat: Web/5][2 pkts/108 bytes <-> 1 pkts/54 bytes]
	48	TCP 192.168.2.4:49169 <-> 17.173.66.102:443 [proto: 91.140/TLS.Apple][cat: Web/5][2 pkts/108 bytes <-> 1 pkts/54 bytes]
	49	TCP 192.168.2.4:49175 <-> 17.172.100.53:443 [proto: 91.140/TLS.Apple][cat: Web/5][2 pkts/108 bytes <-> 1 pkts/54 bytes]
	50	TCP 192.168.2.4:49176 <-> 17.130.137.77:443 [proto: 91.140/TLS.Apple][cat: Web/5][2 pkts/108 bytes <-> 1 pkts/54 bytes]
	51	TCP 192.168.2.4:49180 <-> 17.172.100.59:443 [proto: 91.140/TLS.Apple][cat: Web/5][2 pkts/108 bytes <-> 1 pkts/54 bytes]
	52	TCP 192.168.2.4:49181 <-> 17.172.100.37:443 [proto: 91.140/TLS.Apple][cat: Web/5][2 pkts/108 bytes <-> 1 pkts/54 bytes]
	53	TCP 192.168.2.4:49182 <-> 17.172.100.52:443 [proto: 91.140/TLS.Apple][cat: Web/5][2 pkts/108 bytes <-> 1 pkts/54 bytes]
	54	TCP 192.168.2.4:49191 <-> 17.172.100.49:443 [proto: 91.140/TLS.Apple][cat: Web/5][2 pkts/108 bytes <-> 1 pkts/54 bytes]
	55	TCP 192.168.2.4:49197 <-> 17.167.142.39:443 [proto: 91.140/TLS.Apple][cat: Web/5][2 pkts/108 bytes <-> 1 pkts/54 bytes]
	56	TCP 192.168.2.4:49198 <-> 17.167.142.13:443 [proto: 91.140/TLS.Apple][cat: Web/5][2 pkts/108 bytes <-> 1 pkts/54 bytes]
	57	TCP 192.168.2.4:49200 <-> 17.167.142.13:443 [proto: 91.140/TLS.Apple][cat: Web/5][2 pkts/108 bytes <-> 1 pkts/54 bytes]
